{
    "TYPE": {
        "name": "TYPE",
        "properties": {
            "production": "client",
            "ssdURL": "client",
            "tenantName": "client",
            "appName": "client",
            "namespace": "client",
            "googleMapKey": "client",
            "useDefaultExceptionUI": "client",
            "isIDSEnabled": "client",
            "SSD_BASE_PATH": "server",
            "SSD_DEFAULT_PORT": "server",
            "webAppMountpoint": "both",
            "CLOCK_TOLERANCE": "server",
            "SSD_URL": "both",
            "mongoURI": "server"
        }
    },
    "dev": {
        "name": "dev",
        "properties": {
            "production": false,
            "ssdURL": "http://localhost:8081/api/",
            "tenantName": "neutrinos-delivery",
            "appName": "bupa-frontend",
            "namespace": "com.neutrinos-delivery.bupa-frontend",
            "googleMapKey": "AIzaSyCSTnVwijjv0CFRA4MEeS-H6PAQc87LEoU",
            "useDefaultExceptionUI": true,
            "isIDSEnabled": "true",
            "SSD_BASE_PATH": "/api",
            "SSD_DEFAULT_PORT": "8081",
            "webAppMountpoint": "web",
            "CLOCK_TOLERANCE": "5",
            "SSD_URL": "http://localhost:8081/api/",
            "mongoURI": "mongodb+srv://bupa_user:P@55w0rd01@cluster0.p2ftl.gcp.mongodb.net/bupa_claims?retryWrites=true&w=majority"
        }
    },
    "prod": {
        "name": "prod",
        "properties": {
            "production": true,
            "ssdURL": "http://localhost:8081/api/",
            "tenantName": "neutrinos-delivery",
            "appName": "bupa-frontend",
            "namespace": "com.neutrinos-delivery.bupa-frontend",
            "googleMapKey": "AIzaSyCSTnVwijjv0CFRA4MEeS-H6PAQc87LEoU",
            "useDefaultExceptionUI": true,
            "isIDSEnabled": "false",
            "SSD_BASE_PATH": "/api",
            "SSD_DEFAULT_PORT": "8081",
            "webAppMountpoint": "web",
            "CLOCK_TOLERANCE": "5",
            "SSD_URL": "http://localhost:8081/api/",
            "mongoURI": "mongodb+srv://bupa_user:P@55w0rd01@cluster0.p2ftl.gcp.mongodb.net/bupa_claims?retryWrites=true&w=majority"
        }
    }
}
