{
    "e83bfa3b-5755-0939-ac33-77a31f27e08c": {
        "appPageName": "Dashboard",
        "componentName": "dashboardComponent",
        "createDate": "2021-02-05T16:41:37.969Z"
    },
    "0d8b0583-0599-26f9-576d-a0534cd8e428": {
        "appPageName": "claimsView",
        "componentName": "claimsviewComponent",
        "createDate": "2021-02-06T04:10:06.840Z"
    },
    "1ec760f7-c539-bdb7-e51f-23dc408ced55": {
        "appPageName": "voucherDetails",
        "componentName": "voucherdetailsComponent",
        "createDate": "2021-02-06T05:41:20.875Z"
    }
}
